{
  "licenses": [
    {
      "count": 1,
      "name": "Apache 2.0"
    },
    {
      "count": 1,
      "name": "GPL-2.0-or-later"
    },
    {
      "count": 1,
      "name": "New BSD"
    }
  ],
  "dependencies": [
    {
      "license": {
        "name": "Apache 2.0",
        "url": "http://www.apache.org/licenses/LICENSE-2.0.txt"
      },
      "dependency": {
        "name": "jerryscript",
        "description": "",
        "pathes": [
          "."
        ]
      }
    },
    {
      "license": {
        "name": "GPL-2.0-or-later"
      },
      "dependency": {
        "name": "wolfssl",
        "description": "",
        "pathes": [
          "."
        ]
      }
    },
    {
      "license": {
        "name": "New BSD",
        "url": "http://opensource.org/licenses/BSD-3-Clause"
      },
      "dependency": {
        "name": "zstd",
        "description": "",
        "pathes": [
          "."
        ]
      }
    }
  ]
}