{
  "version": "2.0",
  "licenses": [
    {
      "id": "MIT",
      "name": "MIT License",
      "url": "https://opensource.org/licenses/MIT",
      "count": 6
    },
    {
      "id": "Apache-2.0",
      "name": "Apache License 2.0",
      "url": "https://opensource.org/licenses/Apache-2.0",
      "count": 4
    },
    {
      "id": "BSD-3-Clause",
      "name": "BSD 3-Clause \"New\" or \"Revised\" License",
      "url": "https://opensource.org/licenses/BSD-3-Clause",
      "count": 2
    },
    {
      "id": "BSD-2-Clause",
      "name": "BSD 2-Clause \"Simplified\" License",
      "url": "https://opensource.org/licenses/BSD-2-Clause",
      "count": 1
    },
    {
      "id": "ISC",
      "name": "ISC License",
      "url": "https://opensource.org/licenses/ISC",
      "count": 1
    }
  ],
  "dependencies": [
    {
      "name": "github.com/astaxie/beego",
      "url": "",
      "description": "",
      "paths": [
        "."
      ],
      "licenses": [
        "MIT"
      ]
    },
    {
      "name": "github.com/davecgh/go-spew",
      "url": "",
      "description": "",
      "paths": [
        "."
      ],
      "licenses": [
        "ISC"
      ]
    },
    {
      "name": "github.com/konsorten/go-windows-terminal-sequences",
      "url": "",
      "description": "",
      "paths": [
        "."
      ],
      "licenses": [
        "MIT"
      ]
    },
    {
      "name": "github.com/minio/minio",
      "url": "",
      "description": "",
      "paths": [
        "."
      ],
      "licenses": [
        "Apache-2.0"
      ]
    },
    {
      "name": "github.com/minio/minio-go",
      "url": "",
      "description": "",
      "paths": [
        "."
      ],
      "licenses": [
        "Apache-2.0"
      ]
    },
    {
      "name": "github.com/minio/sha256-simd",
      "url": "",
      "description": "",
      "paths": [
        "."
      ],
      "licenses": [
        "Apache-2.0"
      ]
    },
    {
      "name": "github.com/pmezard/go-difflib",
      "url": "",
      "description": "",
      "paths": [
        "."
      ],
      "licenses": [
        "BSD-3-Clause"
      ]
    },
    {
      "name": "github.com/sirupsen/logrus",
      "url": "",
      "description": "",
      "paths": [
        "."
      ],
      "licenses": [
        "MIT"
      ]
    },
    {
      "name": "github.com/stretchr/objx",
      "url": "",
      "description": "",
      "paths": [
        "."
      ],
      "licenses": [
        "MIT"
      ]
    },
    {
      "name": "github.com/stretchr/testify",
      "url": "",
      "description": "",
      "paths": [
        "."
      ],
      "licenses": [
        "MIT"
      ]
    },
    {
      "name": "golang.org/x/sys",
      "url": "",
      "description": "",
      "paths": [
        "."
      ],
      "licenses": [
        "BSD-3-Clause"
      ]
    },
    {
      "name": "gopkg.in/check.v1",
      "url": "",
      "description": "",
      "paths": [
        "."
      ],
      "licenses": [
        "BSD-2-Clause"
      ]
    },
    {
      "name": "gopkg.in/yaml.v2",
      "url": "",
      "description": "",
      "paths": [
        "."
      ],
      "licenses": [
        "Apache-2.0",
        "MIT"
      ]
    }
  ]
}