{
  "version": "2.0",
  "licenses": [
    {
      "id": "MIT",
      "name": "MIT License",
      "url": "https://opensource.org/licenses/MIT",
      "count": 3
    },
    {
      "id": "BSD-3-Clause",
      "name": "BSD 3-Clause \"New\" or \"Revised\" License",
      "url": "https://opensource.org/licenses/BSD-3-Clause",
      "count": 2
    }
  ],
  "dependencies": [
    {
      "name": "highlight.js",
      "url": "https://highlightjs.org/",
      "description": "Syntax highlighting with language autodetection.",
      "paths": [
        "."
      ],
      "licenses": [
        "BSD-3-Clause"
      ]
    },
    {
      "name": "js-npm",
      "url": "",
      "description": "Test project for js-npm",
      "paths": [
        "."
      ],
      "licenses": [
        "BSD-3-Clause",
        "MIT"
      ]
    },
    {
      "name": "moment",
      "url": "http://momentjs.com",
      "description": "Parse, validate, manipulate, and display dates",
      "paths": [
        "."
      ],
      "licenses": [
        "MIT"
      ]
    },
    {
      "name": "normalize.css",
      "url": "https://necolas.github.io/normalize.css",
      "description": "A modern alternative to CSS resets",
      "paths": [
        "."
      ],
      "licenses": [
        "MIT"
      ]
    }
  ]
}
